---
http_interactions:
- request:
    method: get
    uri: http://localhost:3100/nfts/not_included/0x6c2005f258d8d1ef92d0a1e86b68e884d1808fb2?uid=1,2,3,4,5,6,7,8,9,10,11,12,13,14,15,16,17,18,19,20,21,22,23,24,25,26,27,28,29,30,31,32,33,34,35
    body:
      encoding: US-ASCII
      string: ''
    headers:
      X-Realfevr-Token:
      - '123'
      Accept-Encoding:
      - gzip;q=1.0,deflate;q=0.6,identity;q=0.3
      Accept:
      - "*/*"
      User-Agent:
      - Ruby
  response:
    status:
      code: 200
      message: OK
    headers:
      X-Frame-Options:
      - SAMEORIGIN
      X-Xss-Protection:
      - 1; mode=block
      X-Content-Type-Options:
      - nosniff
      X-Download-Options:
      - noopen
      X-Permitted-Cross-Domain-Policies:
      - none
      Referrer-Policy:
      - strict-origin-when-cross-origin
      Content-Type:
      - application/json; charset=utf-8
      Vary:
      - Accept, Origin
      Etag:
      - W/"e36337ebdf69f87554eeca291fc332b0"
      Cache-Control:
      - max-age=0, private, must-revalidate
      X-Request-Id:
      - 384a9a09-8d13-495e-8354-42b90c0c27a4
      X-Runtime:
      - '0.003672'
      Transfer-Encoding:
      - chunked
    body:
      encoding: UTF-8
      string: "[1,2,3,7,8,9,10,11,12,13,14,15,16,17,18,19,20,21,22,23,24,25,26,27,28,29,30,33,34]"
  recorded_at: Tue, 24 May 2022 14:42:27 GMT
- request:
    method: get
    uri: http://localhost:3100/nfts.json?order=price_asc&per_page=96&uid=4,5,6,31,32,35&wallet_addr=0x6c2005f258d8d1ef92d0a1e86b68e884d1808fb2
    body:
      encoding: US-ASCII
      string: ''
    headers:
      Accept:
      - application/json
      X-Realfevr-Token:
      - '123'
      Accept-Encoding:
      - gzip;q=1.0,deflate;q=0.6,identity;q=0.3
      User-Agent:
      - Ruby
  response:
    status:
      code: 200
      message: OK
    headers:
      X-Frame-Options:
      - SAMEORIGIN
      X-Xss-Protection:
      - 1; mode=block
      X-Content-Type-Options:
      - nosniff
      X-Download-Options:
      - noopen
      X-Permitted-Cross-Domain-Policies:
      - none
      Referrer-Policy:
      - strict-origin-when-cross-origin
      Content-Type:
      - application/json; charset=utf-8
      Etag:
      - W/"80a115903dbb29147951e2ec7888fc70"
      Cache-Control:
      - max-age=0, private, must-revalidate
      X-Request-Id:
      - 64fdf0d4-e5a0-44dd-b36f-e0d9fbabcd13
      X-Runtime:
      - '0.018151'
      Vary:
      - Origin
      Transfer-Encoding:
      - chunked
    body:
      encoding: UTF-8
      string: '{"data":[{"id":"60ef7e3811784f02daeb67dd","type":"nfts","attributes":{"uid":6,"wallet_addr":"0x6c2005f258d8D1EF92D0A1E86b68e884d1808fb2","video_id":27,"position":"Midfielder"}},{"id":"60ef7e3811784f02daeb67cc","type":"nfts","attributes":{"uid":5,"wallet_addr":"0x6c2005f258d8D1EF92D0A1E86b68e884d1808fb2","video_id":28,"position":"Defender"}},{"id":"60ef7e3811784f02daeb67bb","type":"nfts","attributes":{"uid":4,"wallet_addr":"0x6c2005f258d8D1EF92D0A1E86b68e884d1808fb2","video_id":27,"position":"Midfielder"}},{"id":"60ef7e3811784f02daeb6997","type":"nfts","attributes":{"uid":32,"wallet_addr":"0x6c2005f258d8D1EF92D0A1E86b68e884d1808fb2","video_id":34,"position":"Defender"}},{"id":"60ef7e3811784f02daeb6986","type":"nfts","attributes":{"uid":31,"wallet_addr":"0x6c2005f258d8D1EF92D0A1E86b68e884d1808fb2","video_id":24,"position":"Forward"}},{"id":"60ef7e3811784f02daeb69ca","type":"nfts","attributes":{"uid":35,"wallet_addr":"0x6c2005f258d8D1EF92D0A1E86b68e884d1808fb2","video_id":3,"position":"Defender"}}],"meta":{"current_page":0,"next_page":1,"prev_page":1,"total_pages":1,"total_count":6}}'
  recorded_at: Tue, 24 May 2022 14:42:27 GMT
recorded_with: VCR 6.0.0
