---
http_interactions:
- request:
    method: get
    uri: http://localhost:3100/nfts/not_included/0x6c2005f258d8d1ef92d0a1e86b68e884d1808fb2?uid=4,5,6
    body:
      encoding: US-ASCII
      string: ''
    headers:
      X-Realfevr-Token:
      - '123'
      Accept-Encoding:
      - gzip;q=1.0,deflate;q=0.6,identity;q=0.3
      Accept:
      - "*/*"
      User-Agent:
      - Ruby
  response:
    status:
      code: 200
      message: OK
    headers:
      X-Frame-Options:
      - SAMEORIGIN
      X-Xss-Protection:
      - 1; mode=block
      X-Content-Type-Options:
      - nosniff
      X-Download-Options:
      - noopen
      X-Permitted-Cross-Domain-Policies:
      - none
      Referrer-Policy:
      - strict-origin-when-cross-origin
      Content-Type:
      - application/json; charset=utf-8
      Vary:
      - Accept, Origin
      Etag:
      - W/"8fe32e407a1038ee38753b70e5374b3a"
      Cache-Control:
      - max-age=0, private, must-revalidate
      X-Request-Id:
      - a06e1033-583b-4dc2-a5db-d800d877823b
      X-Runtime:
      - '0.002718'
      Transfer-Encoding:
      - chunked
    body:
      encoding: UTF-8
      string: '{"data":[]}'
  recorded_at: Tue, 24 May 2022 14:42:28 GMT
- request:
    method: get
    uri: http://localhost:3100/nfts.json?order=price_asc&per_page=96&uid=4,5,6&wallet_addr=0x6c2005f258d8d1ef92d0a1e86b68e884d1808fb2
    body:
      encoding: US-ASCII
      string: ''
    headers:
      Accept:
      - application/json
      X-Realfevr-Token:
      - '123'
      Accept-Encoding:
      - gzip;q=1.0,deflate;q=0.6,identity;q=0.3
      User-Agent:
      - Ruby
  response:
    status:
      code: 200
      message: OK
    headers:
      X-Frame-Options:
      - SAMEORIGIN
      X-Xss-Protection:
      - 1; mode=block
      X-Content-Type-Options:
      - nosniff
      X-Download-Options:
      - noopen
      X-Permitted-Cross-Domain-Policies:
      - none
      Referrer-Policy:
      - strict-origin-when-cross-origin
      Content-Type:
      - application/json; charset=utf-8
      Etag:
      - W/"814da388565eb910ca48dd339dfe8f65"
      Cache-Control:
      - max-age=0, private, must-revalidate
      X-Request-Id:
      - 44b03ede-b713-42a1-98cc-6c071bb2c70b
      X-Runtime:
      - '0.002549'
      Vary:
      - Origin
      Transfer-Encoding:
      - chunked
    body:
      encoding: UTF-8
      string: '{"data":[{"id":"60ef7e3811784f02daeb67dd","type":"nfts","attributes":{"uid":6,"wallet_addr":"0x6c2005f258d8d1ef92d0a1e86b68e884d1808fb2","video_id":27,"position":"Midfielder"}},{"id":"60ef7e3811784f02daeb67cc","type":"nfts","attributes":{"uid":5,"wallet_addr":"0x6c2005f258d8D1EF92D0A1E86b68e884d1808fb2","video_id":28,"position":"Defender"}},{"id":"60ef7e3811784f02daeb67bb","type":"nfts","attributes":{"uid":4,"wallet_addr":"0x6c2005f258d8D1EF92D0A1E86b68e884d1808fb2","video_id":27,"position":"Midfielder"}}],"meta":{"current_page":0,"next_page":1,"prev_page":1,"total_pages":1,"total_count":3}}'
  recorded_at: Tue, 24 May 2022 14:42:28 GMT
recorded_with: VCR 6.0.0
