---
http_interactions:
- request:
    method: get
    uri: http://localhost:3100/nfts.json?order=price_asc&per_page=96&uid=1,2,3,4,5,6,7,8,9,10,11,12,13,14,15,16,17,18,19,20,21,22,23,24,25,26,27,28,29,30,31,32,33,34,35,36,37,38,39,40,41,42,43,44,45,46,47,48,49,50&wallet_addr=0x6c2005f258d8d1ef92d0a1e86b68e884d1808fb2
    body:
      encoding: US-ASCII
      string: ''
    headers:
      Accept:
      - application/json
      X-Realfevr-Token:
      - '123'
      Accept-Encoding:
      - gzip;q=1.0,deflate;q=0.6,identity;q=0.3
      User-Agent:
      - Ruby
  response:
    status:
      code: 200
      message: OK
    headers:
      X-Frame-Options:
      - SAMEORIGIN
      X-Xss-Protection:
      - 1; mode=block
      X-Content-Type-Options:
      - nosniff
      X-Download-Options:
      - noopen
      X-Permitted-Cross-Domain-Policies:
      - none
      Referrer-Policy:
      - strict-origin-when-cross-origin
      Content-Type:
      - application/json; charset=utf-8
      Vary:
      - Accept-Encoding, Origin
      Etag:
      - W/"c44dd1519abc98f4568e56923247c82a"
      Cache-Control:
      - max-age=0, private, must-revalidate
      X-Request-Id:
      - 21636ef6-36e8-4ef5-8215-d0ed93526e57
      X-Runtime:
      - '0.139133'
      Transfer-Encoding:
      - chunked
    body:
      encoding: ASCII-8BIT
      string: '{"data":[{"id":"60ef7e3911784f02daeb6a74","type":"nfts","attributes":{"uid":45,"wallet_addr":"0x6c2005f258d8d1ef92d0a1e86b68e884d1808fb2","video_id":2,"position":"Midfielder"}},{"id":"60ef7e3911784f02daeb6a63","type":"nfts","attributes":{"uid":44,"wallet_addr":"0x6c2005f258d8d1ef92d0a1e86b68e884d1808fb2","video_id":7,"position":"Forward"}},{"id":"60ef7e3811784f02daeb67dd","type":"nfts","attributes":{"uid":6,"wallet_addr":"0x6c2005f258d8d1ef92d0a1e86b68e884d1808fb2","video_id":27,"position":"Midfielder"}},{"id":"60ef7e3911784f02daeb6a52","type":"nfts","attributes":{"uid":43,"wallet_addr":"0x6c2005f258d8d1ef92d0a1e86b68e884d1808fb2","video_id":20,"position":"Midfielder"}},{"id":"60ef7e3811784f02daeb67cc","type":"nfts","attributes":{"uid":5,"wallet_addr":"0x6c2005f258d8d1ef92d0a1e86b68e884d1808fb2","video_id":28,"position":"Defender"}},{"id":"60ef7e3811784f02daeb67bb","type":"nfts","attributes":{"uid":4,"wallet_addr":"0x6c2005f258d8d1ef92d0a1e86b68e884d1808fb2","video_id":27,"position":"Midfielder"}},{"id":"60ef7e3811784f02daeb6997","type":"nfts","attributes":{"uid":32,"wallet_addr":"0x6c2005f258d8d1ef92d0a1e86b68e884d1808fb2","video_id":34,"position":"Defender"}},{"id":"60ef7e3811784f02daeb6986","type":"nfts","attributes":{"uid":31,"wallet_addr":"0x6c2005f258d8d1ef92d0a1e86b68e884d1808fb2","video_id":24,"position":"Forward"}},{"id":"60ef7e3811784f02daeb69ca","type":"nfts","attributes":{"uid":35,"wallet_addr":"0x6c2005f258d8d1ef92d0a1e86b68e884d1808fb2","video_id":3,"position":"Defender"}},{"id":"60ef7e3911784f02daeb6a1f","type":"nfts","attributes":{"uid":40,"wallet_addr":"0x6c2005f258d8d1ef92d0a1e86b68e884d1808fb2","video_id":35,"position":"Midfielder"}},{"id":"60ef7e3911784f02daeb6a30","type":"nfts","attributes":{"uid":41,"wallet_addr":"0x6c2005f258d8d1ef92d0a1e86b68e884d1808fb2","video_id":18,"position":"Goalkeeper"}},{"id":"60ef7e3911784f02daeb6a41","type":"nfts","attributes":{"uid":42,"wallet_addr":"0x6c2005f258d8d1ef92d0a1e86b68e884d1808fb2","video_id":37,"position":"Midfielder"}}],"meta":{"current_page":0,"next_page":1,"prev_page":1,"total_pages":1,"total_count":12}}'
  recorded_at: Thu, 27 Oct 2022 18:04:42 GMT
recorded_with: VCR 6.0.0
