---
http_interactions:
- request:
    method: get
    uri: http://localhost:3001/tokens/
    body:
      encoding: US-ASCII
      string: ''
    headers:
      X-Realfevr-I-Token:
      - nfts-dummy-key
      X-Realfevr-Token:
      - nfts_123
      Accept-Encoding:
      - gzip;q=1.0,deflate;q=0.6,identity;q=0.3
      Accept:
      - "*/*"
      User-Agent:
      - Ruby
  response:
    status:
      code: 200
      message: OK
    headers:
      X-Frame-Options:
      - SAMEORIGIN
      X-Xss-Protection:
      - 1; mode=block
      X-Content-Type-Options:
      - nosniff
      X-Download-Options:
      - noopen
      X-Permitted-Cross-Domain-Policies:
      - none
      Referrer-Policy:
      - strict-origin-when-cross-origin
      Content-Type:
      - application/json; charset=utf-8
      Vary:
      - Accept, Accept-Encoding, Origin
      Etag:
      - W/"7f062a6ac12c824c99effa6d7b29cda1"
      Cache-Control:
      - max-age=0, private, must-revalidate
      X-Request-Id:
      - 7610fc4b-efb3-4f39-be91-40a9d88e1ba8
      X-Runtime:
      - '0.010962'
      Transfer-Encoding:
      - chunked
    body:
      encoding: ASCII-8BIT
      string: '{"data":[{"id":"6275e0bbb54c3300983bc33b","type":"tokens","attributes":{"name":"FEVR","address":null,"price_in_dollars":0.005,"update_token_price_in_sc":false,"image_url":null}},{"id":"6275ddd1b54c3300983969b7","type":"tokens","attributes":{"name":"FEVR","address":null,"price_in_dollars":0.005,"update_token_price_in_sc":false,"image_url":null}},{"id":"6275d8230a63220350f9f9ad","type":"tokens","attributes":{"name":"FEVR","address":null,"price_in_dollars":0.005,"update_token_price_in_sc":false,"image_url":null}},{"id":"6275d52d0a632201f916d6ab","type":"tokens","attributes":{"name":"FEVR","address":null,"price_in_dollars":0.005,"update_token_price_in_sc":false,"image_url":null}},{"id":"6275d3a70a6322013c9dc11f","type":"tokens","attributes":{"name":"FEVR","address":null,"price_in_dollars":0.005,"update_token_price_in_sc":false,"image_url":null}},{"id":"60f5d0210751f201483f3947","type":"tokens","attributes":{"name":"BNB","address":null,"price_in_dollars":282.05,"update_token_price_in_sc":false,"image_url":null}},{"id":"60ef7d1411784f02dae91295","type":"tokens","attributes":{"name":"FEVR","address":null,"price_in_dollars":0.0006,"update_token_price_in_sc":false,"image_url":null}},{"id":"60ef659357566a009678e813","type":"tokens","attributes":{"name":"FEVR","address":null,"price_in_dollars":0.0006,"update_token_price_in_sc":false,"image_url":null}},{"id":"60ef0e2122464b08800cde89","type":"tokens","attributes":{"name":"FEVR","address":null,"price_in_dollars":0.0007,"update_token_price_in_sc":false,"image_url":null}}],"meta":{"current_page":1,"next_page":1,"prev_page":1,"total_pages":1,"total_count":9}}'
  recorded_at: Thu, 02 Nov 2023 17:16:46 GMT
- request:
    method: get
    uri: http://localhost:3001/tokens/
    body:
      encoding: US-ASCII
      string: ''
    headers:
      X-Realfevr-I-Token:
      - nfts-dummy-key
      X-Realfevr-Token:
      - nfts_123
      Accept-Encoding:
      - gzip;q=1.0,deflate;q=0.6,identity;q=0.3
      Accept:
      - "*/*"
      User-Agent:
      - Ruby
  response:
    status:
      code: 200
      message: OK
    headers:
      X-Frame-Options:
      - SAMEORIGIN
      X-Xss-Protection:
      - 1; mode=block
      X-Content-Type-Options:
      - nosniff
      X-Download-Options:
      - noopen
      X-Permitted-Cross-Domain-Policies:
      - none
      Referrer-Policy:
      - strict-origin-when-cross-origin
      Content-Type:
      - application/json; charset=utf-8
      Vary:
      - Accept, Accept-Encoding, Origin
      Etag:
      - W/"7f062a6ac12c824c99effa6d7b29cda1"
      Cache-Control:
      - max-age=0, private, must-revalidate
      X-Request-Id:
      - 845b3160-b2aa-43cf-8547-fff7e98160f6
      X-Runtime:
      - '0.014850'
      Transfer-Encoding:
      - chunked
    body:
      encoding: ASCII-8BIT
      string: '{"data":[{"id":"6275e0bbb54c3300983bc33b","type":"tokens","attributes":{"name":"FEVR","address":null,"price_in_dollars":0.005,"update_token_price_in_sc":false,"image_url":null}},{"id":"6275ddd1b54c3300983969b7","type":"tokens","attributes":{"name":"FEVR","address":null,"price_in_dollars":0.005,"update_token_price_in_sc":false,"image_url":null}},{"id":"6275d8230a63220350f9f9ad","type":"tokens","attributes":{"name":"FEVR","address":null,"price_in_dollars":0.005,"update_token_price_in_sc":false,"image_url":null}},{"id":"6275d52d0a632201f916d6ab","type":"tokens","attributes":{"name":"FEVR","address":null,"price_in_dollars":0.005,"update_token_price_in_sc":false,"image_url":null}},{"id":"6275d3a70a6322013c9dc11f","type":"tokens","attributes":{"name":"FEVR","address":null,"price_in_dollars":0.005,"update_token_price_in_sc":false,"image_url":null}},{"id":"60f5d0210751f201483f3947","type":"tokens","attributes":{"name":"BNB","address":null,"price_in_dollars":282.05,"update_token_price_in_sc":false,"image_url":null}},{"id":"60ef7d1411784f02dae91295","type":"tokens","attributes":{"name":"FEVR","address":null,"price_in_dollars":0.0006,"update_token_price_in_sc":false,"image_url":null}},{"id":"60ef659357566a009678e813","type":"tokens","attributes":{"name":"FEVR","address":null,"price_in_dollars":0.0006,"update_token_price_in_sc":false,"image_url":null}},{"id":"60ef0e2122464b08800cde89","type":"tokens","attributes":{"name":"FEVR","address":null,"price_in_dollars":0.0007,"update_token_price_in_sc":false,"image_url":null}}],"meta":{"current_page":1,"next_page":1,"prev_page":1,"total_pages":1,"total_count":9}}'
  recorded_at: Thu, 02 Nov 2023 17:16:46 GMT
- request:
    method: get
    uri: http://localhost:3001/tokens/
    body:
      encoding: US-ASCII
      string: ''
    headers:
      X-Realfevr-I-Token:
      - nfts-dummy-key
      X-Realfevr-Token:
      - nfts_123
      Accept-Encoding:
      - gzip;q=1.0,deflate;q=0.6,identity;q=0.3
      Accept:
      - "*/*"
      User-Agent:
      - Ruby
  response:
    status:
      code: 200
      message: OK
    headers:
      X-Frame-Options:
      - SAMEORIGIN
      X-Xss-Protection:
      - 1; mode=block
      X-Content-Type-Options:
      - nosniff
      X-Download-Options:
      - noopen
      X-Permitted-Cross-Domain-Policies:
      - none
      Referrer-Policy:
      - strict-origin-when-cross-origin
      Content-Type:
      - application/json; charset=utf-8
      Vary:
      - Accept, Accept-Encoding, Origin
      Etag:
      - W/"7f062a6ac12c824c99effa6d7b29cda1"
      Cache-Control:
      - max-age=0, private, must-revalidate
      X-Request-Id:
      - be2a2186-3efd-4402-a913-a2d28ac1ce0b
      X-Runtime:
      - '0.012250'
      Transfer-Encoding:
      - chunked
    body:
      encoding: ASCII-8BIT
      string: '{"data":[{"id":"6275e0bbb54c3300983bc33b","type":"tokens","attributes":{"name":"FEVR","address":null,"price_in_dollars":0.005,"update_token_price_in_sc":false,"image_url":null}},{"id":"6275ddd1b54c3300983969b7","type":"tokens","attributes":{"name":"FEVR","address":null,"price_in_dollars":0.005,"update_token_price_in_sc":false,"image_url":null}},{"id":"6275d8230a63220350f9f9ad","type":"tokens","attributes":{"name":"FEVR","address":null,"price_in_dollars":0.005,"update_token_price_in_sc":false,"image_url":null}},{"id":"6275d52d0a632201f916d6ab","type":"tokens","attributes":{"name":"FEVR","address":null,"price_in_dollars":0.005,"update_token_price_in_sc":false,"image_url":null}},{"id":"6275d3a70a6322013c9dc11f","type":"tokens","attributes":{"name":"FEVR","address":null,"price_in_dollars":0.005,"update_token_price_in_sc":false,"image_url":null}},{"id":"60f5d0210751f201483f3947","type":"tokens","attributes":{"name":"BNB","address":null,"price_in_dollars":282.05,"update_token_price_in_sc":false,"image_url":null}},{"id":"60ef7d1411784f02dae91295","type":"tokens","attributes":{"name":"FEVR","address":null,"price_in_dollars":0.0006,"update_token_price_in_sc":false,"image_url":null}},{"id":"60ef659357566a009678e813","type":"tokens","attributes":{"name":"FEVR","address":null,"price_in_dollars":0.0006,"update_token_price_in_sc":false,"image_url":null}},{"id":"60ef0e2122464b08800cde89","type":"tokens","attributes":{"name":"FEVR","address":null,"price_in_dollars":0.0007,"update_token_price_in_sc":false,"image_url":null}}],"meta":{"current_page":1,"next_page":1,"prev_page":1,"total_pages":1,"total_count":9}}'
  recorded_at: Thu, 02 Nov 2023 17:16:46 GMT
- request:
    method: get
    uri: http://localhost:3001/tokens/
    body:
      encoding: US-ASCII
      string: ''
    headers:
      X-Realfevr-I-Token:
      - nfts-dummy-key
      X-Realfevr-Token:
      - nfts_123
      Accept-Encoding:
      - gzip;q=1.0,deflate;q=0.6,identity;q=0.3
      Accept:
      - "*/*"
      User-Agent:
      - Ruby
  response:
    status:
      code: 200
      message: OK
    headers:
      X-Frame-Options:
      - SAMEORIGIN
      X-Xss-Protection:
      - 1; mode=block
      X-Content-Type-Options:
      - nosniff
      X-Download-Options:
      - noopen
      X-Permitted-Cross-Domain-Policies:
      - none
      Referrer-Policy:
      - strict-origin-when-cross-origin
      Content-Type:
      - application/json; charset=utf-8
      Vary:
      - Accept, Accept-Encoding, Origin
      Etag:
      - W/"7f062a6ac12c824c99effa6d7b29cda1"
      Cache-Control:
      - max-age=0, private, must-revalidate
      X-Request-Id:
      - 0c199a29-cdf1-4fb5-9c8a-8c68c2f75ed1
      X-Runtime:
      - '0.014499'
      Transfer-Encoding:
      - chunked
    body:
      encoding: ASCII-8BIT
      string: '{"data":[{"id":"6275e0bbb54c3300983bc33b","type":"tokens","attributes":{"name":"FEVR","address":null,"price_in_dollars":0.005,"update_token_price_in_sc":false,"image_url":null}},{"id":"6275ddd1b54c3300983969b7","type":"tokens","attributes":{"name":"FEVR","address":null,"price_in_dollars":0.005,"update_token_price_in_sc":false,"image_url":null}},{"id":"6275d8230a63220350f9f9ad","type":"tokens","attributes":{"name":"FEVR","address":null,"price_in_dollars":0.005,"update_token_price_in_sc":false,"image_url":null}},{"id":"6275d52d0a632201f916d6ab","type":"tokens","attributes":{"name":"FEVR","address":null,"price_in_dollars":0.005,"update_token_price_in_sc":false,"image_url":null}},{"id":"6275d3a70a6322013c9dc11f","type":"tokens","attributes":{"name":"FEVR","address":null,"price_in_dollars":0.005,"update_token_price_in_sc":false,"image_url":null}},{"id":"60f5d0210751f201483f3947","type":"tokens","attributes":{"name":"BNB","address":null,"price_in_dollars":282.05,"update_token_price_in_sc":false,"image_url":null}},{"id":"60ef7d1411784f02dae91295","type":"tokens","attributes":{"name":"FEVR","address":null,"price_in_dollars":0.0006,"update_token_price_in_sc":false,"image_url":null}},{"id":"60ef659357566a009678e813","type":"tokens","attributes":{"name":"FEVR","address":null,"price_in_dollars":0.0006,"update_token_price_in_sc":false,"image_url":null}},{"id":"60ef0e2122464b08800cde89","type":"tokens","attributes":{"name":"FEVR","address":null,"price_in_dollars":0.0007,"update_token_price_in_sc":false,"image_url":null}}],"meta":{"current_page":1,"next_page":1,"prev_page":1,"total_pages":1,"total_count":9}}'
  recorded_at: Thu, 02 Nov 2023 17:16:46 GMT
- request:
    method: get
    uri: http://localhost:3001/tokens/
    body:
      encoding: US-ASCII
      string: ''
    headers:
      X-Realfevr-I-Token:
      - nfts-dummy-key
      X-Realfevr-Token:
      - nfts_123
      Accept-Encoding:
      - gzip;q=1.0,deflate;q=0.6,identity;q=0.3
      Accept:
      - "*/*"
      User-Agent:
      - Ruby
  response:
    status:
      code: 200
      message: OK
    headers:
      X-Frame-Options:
      - SAMEORIGIN
      X-Xss-Protection:
      - 1; mode=block
      X-Content-Type-Options:
      - nosniff
      X-Download-Options:
      - noopen
      X-Permitted-Cross-Domain-Policies:
      - none
      Referrer-Policy:
      - strict-origin-when-cross-origin
      Content-Type:
      - application/json; charset=utf-8
      Vary:
      - Accept, Accept-Encoding, Origin
      Etag:
      - W/"7f062a6ac12c824c99effa6d7b29cda1"
      Cache-Control:
      - max-age=0, private, must-revalidate
      X-Request-Id:
      - ac2266a7-da8d-48fc-b5c4-6eb9d5c0a60c
      X-Runtime:
      - '0.012113'
      Transfer-Encoding:
      - chunked
    body:
      encoding: ASCII-8BIT
      string: '{"data":[{"id":"6275e0bbb54c3300983bc33b","type":"tokens","attributes":{"name":"FEVR","address":null,"price_in_dollars":0.005,"update_token_price_in_sc":false,"image_url":null}},{"id":"6275ddd1b54c3300983969b7","type":"tokens","attributes":{"name":"FEVR","address":null,"price_in_dollars":0.005,"update_token_price_in_sc":false,"image_url":null}},{"id":"6275d8230a63220350f9f9ad","type":"tokens","attributes":{"name":"FEVR","address":null,"price_in_dollars":0.005,"update_token_price_in_sc":false,"image_url":null}},{"id":"6275d52d0a632201f916d6ab","type":"tokens","attributes":{"name":"FEVR","address":null,"price_in_dollars":0.005,"update_token_price_in_sc":false,"image_url":null}},{"id":"6275d3a70a6322013c9dc11f","type":"tokens","attributes":{"name":"FEVR","address":null,"price_in_dollars":0.005,"update_token_price_in_sc":false,"image_url":null}},{"id":"60f5d0210751f201483f3947","type":"tokens","attributes":{"name":"BNB","address":null,"price_in_dollars":282.05,"update_token_price_in_sc":false,"image_url":null}},{"id":"60ef7d1411784f02dae91295","type":"tokens","attributes":{"name":"FEVR","address":null,"price_in_dollars":0.0006,"update_token_price_in_sc":false,"image_url":null}},{"id":"60ef659357566a009678e813","type":"tokens","attributes":{"name":"FEVR","address":null,"price_in_dollars":0.0006,"update_token_price_in_sc":false,"image_url":null}},{"id":"60ef0e2122464b08800cde89","type":"tokens","attributes":{"name":"FEVR","address":null,"price_in_dollars":0.0007,"update_token_price_in_sc":false,"image_url":null}}],"meta":{"current_page":1,"next_page":1,"prev_page":1,"total_pages":1,"total_count":9}}'
  recorded_at: Thu, 02 Nov 2023 17:16:46 GMT
- request:
    method: get
    uri: http://localhost:3001/tokens/
    body:
      encoding: US-ASCII
      string: ''
    headers:
      X-Realfevr-I-Token:
      - nfts-dummy-key
      X-Realfevr-Token:
      - nfts_123
      Accept-Encoding:
      - gzip;q=1.0,deflate;q=0.6,identity;q=0.3
      Accept:
      - "*/*"
      User-Agent:
      - Ruby
  response:
    status:
      code: 200
      message: OK
    headers:
      X-Frame-Options:
      - SAMEORIGIN
      X-Xss-Protection:
      - 1; mode=block
      X-Content-Type-Options:
      - nosniff
      X-Download-Options:
      - noopen
      X-Permitted-Cross-Domain-Policies:
      - none
      Referrer-Policy:
      - strict-origin-when-cross-origin
      Content-Type:
      - application/json; charset=utf-8
      Vary:
      - Accept, Accept-Encoding, Origin
      Etag:
      - W/"7f062a6ac12c824c99effa6d7b29cda1"
      Cache-Control:
      - max-age=0, private, must-revalidate
      X-Request-Id:
      - b5a29f8e-07af-4c56-af4b-6f9f0e83e9e2
      X-Runtime:
      - '0.017171'
      Transfer-Encoding:
      - chunked
    body:
      encoding: ASCII-8BIT
      string: '{"data":[{"id":"6275e0bbb54c3300983bc33b","type":"tokens","attributes":{"name":"FEVR","address":null,"price_in_dollars":0.005,"update_token_price_in_sc":false,"image_url":null}},{"id":"6275ddd1b54c3300983969b7","type":"tokens","attributes":{"name":"FEVR","address":null,"price_in_dollars":0.005,"update_token_price_in_sc":false,"image_url":null}},{"id":"6275d8230a63220350f9f9ad","type":"tokens","attributes":{"name":"FEVR","address":null,"price_in_dollars":0.005,"update_token_price_in_sc":false,"image_url":null}},{"id":"6275d52d0a632201f916d6ab","type":"tokens","attributes":{"name":"FEVR","address":null,"price_in_dollars":0.005,"update_token_price_in_sc":false,"image_url":null}},{"id":"6275d3a70a6322013c9dc11f","type":"tokens","attributes":{"name":"FEVR","address":null,"price_in_dollars":0.005,"update_token_price_in_sc":false,"image_url":null}},{"id":"60f5d0210751f201483f3947","type":"tokens","attributes":{"name":"BNB","address":null,"price_in_dollars":282.05,"update_token_price_in_sc":false,"image_url":null}},{"id":"60ef7d1411784f02dae91295","type":"tokens","attributes":{"name":"FEVR","address":null,"price_in_dollars":0.0006,"update_token_price_in_sc":false,"image_url":null}},{"id":"60ef659357566a009678e813","type":"tokens","attributes":{"name":"FEVR","address":null,"price_in_dollars":0.0006,"update_token_price_in_sc":false,"image_url":null}},{"id":"60ef0e2122464b08800cde89","type":"tokens","attributes":{"name":"FEVR","address":null,"price_in_dollars":0.0007,"update_token_price_in_sc":false,"image_url":null}}],"meta":{"current_page":1,"next_page":1,"prev_page":1,"total_pages":1,"total_count":9}}'
  recorded_at: Thu, 02 Nov 2023 17:16:46 GMT
- request:
    method: get
    uri: http://localhost:3001/tokens/
    body:
      encoding: US-ASCII
      string: ''
    headers:
      X-Realfevr-I-Token:
      - nfts-dummy-key
      X-Realfevr-Token:
      - nfts_123
      Accept-Encoding:
      - gzip;q=1.0,deflate;q=0.6,identity;q=0.3
      Accept:
      - "*/*"
      User-Agent:
      - Ruby
  response:
    status:
      code: 200
      message: OK
    headers:
      X-Frame-Options:
      - SAMEORIGIN
      X-Xss-Protection:
      - 1; mode=block
      X-Content-Type-Options:
      - nosniff
      X-Download-Options:
      - noopen
      X-Permitted-Cross-Domain-Policies:
      - none
      Referrer-Policy:
      - strict-origin-when-cross-origin
      Content-Type:
      - application/json; charset=utf-8
      Vary:
      - Accept, Accept-Encoding, Origin
      Etag:
      - W/"7f062a6ac12c824c99effa6d7b29cda1"
      Cache-Control:
      - max-age=0, private, must-revalidate
      X-Request-Id:
      - 96bee841-84ea-4388-80c3-c74968b1b790
      X-Runtime:
      - '0.012064'
      Transfer-Encoding:
      - chunked
    body:
      encoding: ASCII-8BIT
      string: '{"data":[{"id":"6275e0bbb54c3300983bc33b","type":"tokens","attributes":{"name":"FEVR","address":null,"price_in_dollars":0.005,"update_token_price_in_sc":false,"image_url":null}},{"id":"6275ddd1b54c3300983969b7","type":"tokens","attributes":{"name":"FEVR","address":null,"price_in_dollars":0.005,"update_token_price_in_sc":false,"image_url":null}},{"id":"6275d8230a63220350f9f9ad","type":"tokens","attributes":{"name":"FEVR","address":null,"price_in_dollars":0.005,"update_token_price_in_sc":false,"image_url":null}},{"id":"6275d52d0a632201f916d6ab","type":"tokens","attributes":{"name":"FEVR","address":null,"price_in_dollars":0.005,"update_token_price_in_sc":false,"image_url":null}},{"id":"6275d3a70a6322013c9dc11f","type":"tokens","attributes":{"name":"FEVR","address":null,"price_in_dollars":0.005,"update_token_price_in_sc":false,"image_url":null}},{"id":"60f5d0210751f201483f3947","type":"tokens","attributes":{"name":"BNB","address":null,"price_in_dollars":282.05,"update_token_price_in_sc":false,"image_url":null}},{"id":"60ef7d1411784f02dae91295","type":"tokens","attributes":{"name":"FEVR","address":null,"price_in_dollars":0.0006,"update_token_price_in_sc":false,"image_url":null}},{"id":"60ef659357566a009678e813","type":"tokens","attributes":{"name":"FEVR","address":null,"price_in_dollars":0.0006,"update_token_price_in_sc":false,"image_url":null}},{"id":"60ef0e2122464b08800cde89","type":"tokens","attributes":{"name":"FEVR","address":null,"price_in_dollars":0.0007,"update_token_price_in_sc":false,"image_url":null}}],"meta":{"current_page":1,"next_page":1,"prev_page":1,"total_pages":1,"total_count":9}}'
  recorded_at: Thu, 02 Nov 2023 17:16:46 GMT
- request:
    method: get
    uri: http://localhost:3001/tokens/
    body:
      encoding: US-ASCII
      string: ''
    headers:
      X-Realfevr-I-Token:
      - nfts-dummy-key
      X-Realfevr-Token:
      - nfts_123
      Accept-Encoding:
      - gzip;q=1.0,deflate;q=0.6,identity;q=0.3
      Accept:
      - "*/*"
      User-Agent:
      - Ruby
  response:
    status:
      code: 200
      message: OK
    headers:
      X-Frame-Options:
      - SAMEORIGIN
      X-Xss-Protection:
      - 1; mode=block
      X-Content-Type-Options:
      - nosniff
      X-Download-Options:
      - noopen
      X-Permitted-Cross-Domain-Policies:
      - none
      Referrer-Policy:
      - strict-origin-when-cross-origin
      Content-Type:
      - application/json; charset=utf-8
      Vary:
      - Accept, Accept-Encoding, Origin
      Etag:
      - W/"7f062a6ac12c824c99effa6d7b29cda1"
      Cache-Control:
      - max-age=0, private, must-revalidate
      X-Request-Id:
      - 3f668439-4fba-4cd4-bb14-8a6749a08646
      X-Runtime:
      - '0.014939'
      Transfer-Encoding:
      - chunked
    body:
      encoding: ASCII-8BIT
      string: '{"data":[{"id":"6275e0bbb54c3300983bc33b","type":"tokens","attributes":{"name":"FEVR","address":null,"price_in_dollars":0.005,"update_token_price_in_sc":false,"image_url":null}},{"id":"6275ddd1b54c3300983969b7","type":"tokens","attributes":{"name":"FEVR","address":null,"price_in_dollars":0.005,"update_token_price_in_sc":false,"image_url":null}},{"id":"6275d8230a63220350f9f9ad","type":"tokens","attributes":{"name":"FEVR","address":null,"price_in_dollars":0.005,"update_token_price_in_sc":false,"image_url":null}},{"id":"6275d52d0a632201f916d6ab","type":"tokens","attributes":{"name":"FEVR","address":null,"price_in_dollars":0.005,"update_token_price_in_sc":false,"image_url":null}},{"id":"6275d3a70a6322013c9dc11f","type":"tokens","attributes":{"name":"FEVR","address":null,"price_in_dollars":0.005,"update_token_price_in_sc":false,"image_url":null}},{"id":"60f5d0210751f201483f3947","type":"tokens","attributes":{"name":"BNB","address":null,"price_in_dollars":282.05,"update_token_price_in_sc":false,"image_url":null}},{"id":"60ef7d1411784f02dae91295","type":"tokens","attributes":{"name":"FEVR","address":null,"price_in_dollars":0.0006,"update_token_price_in_sc":false,"image_url":null}},{"id":"60ef659357566a009678e813","type":"tokens","attributes":{"name":"FEVR","address":null,"price_in_dollars":0.0006,"update_token_price_in_sc":false,"image_url":null}},{"id":"60ef0e2122464b08800cde89","type":"tokens","attributes":{"name":"FEVR","address":null,"price_in_dollars":0.0007,"update_token_price_in_sc":false,"image_url":null}}],"meta":{"current_page":1,"next_page":1,"prev_page":1,"total_pages":1,"total_count":9}}'
  recorded_at: Thu, 02 Nov 2023 17:16:46 GMT
recorded_with: VCR 6.0.0
