---
http_interactions:
- request:
    method: get
    uri: http://localhost:3001/tokens/
    body:
      encoding: US-ASCII
      string: ''
    headers:
      X-Realfevr-I-Token:
      - nfts-dummy-key
      X-Realfevr-Token:
      - nfts_123
      Accept-Encoding:
      - gzip;q=1.0,deflate;q=0.6,identity;q=0.3
      Accept:
      - "*/*"
      User-Agent:
      - Ruby
  response:
    status:
      code: 200
      message: OK
    headers:
      X-Frame-Options:
      - SAMEORIGIN
      X-Xss-Protection:
      - 1; mode=block
      X-Content-Type-Options:
      - nosniff
      X-Download-Options:
      - noopen
      X-Permitted-Cross-Domain-Policies:
      - none
      Referrer-Policy:
      - strict-origin-when-cross-origin
      Content-Type:
      - application/json; charset=utf-8
      Vary:
      - Accept, Accept-Encoding, Origin
      Etag:
      - W/"7f062a6ac12c824c99effa6d7b29cda1"
      Cache-Control:
      - max-age=0, private, must-revalidate
      X-Request-Id:
      - 33a5b94a-483e-4560-a37d-d7a1cbccb9f3
      X-Runtime:
      - '0.015145'
      Transfer-Encoding:
      - chunked
    body:
      encoding: ASCII-8BIT
      string: '{"data":[{"id":"6275e0bbb54c3300983bc33b","type":"tokens","attributes":{"name":"FEVR","address":null,"price_in_dollars":0.005,"update_token_price_in_sc":false,"image_url":null}},{"id":"6275ddd1b54c3300983969b7","type":"tokens","attributes":{"name":"FEVR","address":null,"price_in_dollars":0.005,"update_token_price_in_sc":false,"image_url":null}},{"id":"6275d8230a63220350f9f9ad","type":"tokens","attributes":{"name":"FEVR","address":null,"price_in_dollars":0.005,"update_token_price_in_sc":false,"image_url":null}},{"id":"6275d52d0a632201f916d6ab","type":"tokens","attributes":{"name":"FEVR","address":null,"price_in_dollars":0.005,"update_token_price_in_sc":false,"image_url":null}},{"id":"6275d3a70a6322013c9dc11f","type":"tokens","attributes":{"name":"FEVR","address":null,"price_in_dollars":0.005,"update_token_price_in_sc":false,"image_url":null}},{"id":"60f5d0210751f201483f3947","type":"tokens","attributes":{"name":"BNB","address":null,"price_in_dollars":282.05,"update_token_price_in_sc":false,"image_url":null}},{"id":"60ef7d1411784f02dae91295","type":"tokens","attributes":{"name":"FEVR","address":null,"price_in_dollars":0.0006,"update_token_price_in_sc":false,"image_url":null}},{"id":"60ef659357566a009678e813","type":"tokens","attributes":{"name":"FEVR","address":null,"price_in_dollars":0.0006,"update_token_price_in_sc":false,"image_url":null}},{"id":"60ef0e2122464b08800cde89","type":"tokens","attributes":{"name":"FEVR","address":null,"price_in_dollars":0.0007,"update_token_price_in_sc":false,"image_url":null}}],"meta":{"current_page":1,"next_page":1,"prev_page":1,"total_pages":1,"total_count":9}}'
  recorded_at: Thu, 02 Nov 2023 17:16:46 GMT
- request:
    method: get
    uri: http://localhost:3001/tokens/
    body:
      encoding: US-ASCII
      string: ''
    headers:
      X-Realfevr-I-Token:
      - nfts-dummy-key
      X-Realfevr-Token:
      - nfts_123
      Accept-Encoding:
      - gzip;q=1.0,deflate;q=0.6,identity;q=0.3
      Accept:
      - "*/*"
      User-Agent:
      - Ruby
  response:
    status:
      code: 200
      message: OK
    headers:
      X-Frame-Options:
      - SAMEORIGIN
      X-Xss-Protection:
      - 1; mode=block
      X-Content-Type-Options:
      - nosniff
      X-Download-Options:
      - noopen
      X-Permitted-Cross-Domain-Policies:
      - none
      Referrer-Policy:
      - strict-origin-when-cross-origin
      Content-Type:
      - application/json; charset=utf-8
      Vary:
      - Accept, Accept-Encoding, Origin
      Etag:
      - W/"7f062a6ac12c824c99effa6d7b29cda1"
      Cache-Control:
      - max-age=0, private, must-revalidate
      X-Request-Id:
      - 663bb839-599e-4124-afa3-dc02d8bf12db
      X-Runtime:
      - '0.012980'
      Transfer-Encoding:
      - chunked
    body:
      encoding: ASCII-8BIT
      string: '{"data":[{"id":"6275e0bbb54c3300983bc33b","type":"tokens","attributes":{"name":"FEVR","address":null,"price_in_dollars":0.005,"update_token_price_in_sc":false,"image_url":null}},{"id":"6275ddd1b54c3300983969b7","type":"tokens","attributes":{"name":"FEVR","address":null,"price_in_dollars":0.005,"update_token_price_in_sc":false,"image_url":null}},{"id":"6275d8230a63220350f9f9ad","type":"tokens","attributes":{"name":"FEVR","address":null,"price_in_dollars":0.005,"update_token_price_in_sc":false,"image_url":null}},{"id":"6275d52d0a632201f916d6ab","type":"tokens","attributes":{"name":"FEVR","address":null,"price_in_dollars":0.005,"update_token_price_in_sc":false,"image_url":null}},{"id":"6275d3a70a6322013c9dc11f","type":"tokens","attributes":{"name":"FEVR","address":null,"price_in_dollars":0.005,"update_token_price_in_sc":false,"image_url":null}},{"id":"60f5d0210751f201483f3947","type":"tokens","attributes":{"name":"BNB","address":null,"price_in_dollars":282.05,"update_token_price_in_sc":false,"image_url":null}},{"id":"60ef7d1411784f02dae91295","type":"tokens","attributes":{"name":"FEVR","address":null,"price_in_dollars":0.0006,"update_token_price_in_sc":false,"image_url":null}},{"id":"60ef659357566a009678e813","type":"tokens","attributes":{"name":"FEVR","address":null,"price_in_dollars":0.0006,"update_token_price_in_sc":false,"image_url":null}},{"id":"60ef0e2122464b08800cde89","type":"tokens","attributes":{"name":"FEVR","address":null,"price_in_dollars":0.0007,"update_token_price_in_sc":false,"image_url":null}}],"meta":{"current_page":1,"next_page":1,"prev_page":1,"total_pages":1,"total_count":9}}'
  recorded_at: Thu, 02 Nov 2023 17:16:46 GMT
- request:
    method: get
    uri: http://localhost:3001/tokens/
    body:
      encoding: US-ASCII
      string: ''
    headers:
      X-Realfevr-I-Token:
      - nfts-dummy-key
      X-Realfevr-Token:
      - nfts_123
      Accept-Encoding:
      - gzip;q=1.0,deflate;q=0.6,identity;q=0.3
      Accept:
      - "*/*"
      User-Agent:
      - Ruby
  response:
    status:
      code: 200
      message: OK
    headers:
      X-Frame-Options:
      - SAMEORIGIN
      X-Xss-Protection:
      - 1; mode=block
      X-Content-Type-Options:
      - nosniff
      X-Download-Options:
      - noopen
      X-Permitted-Cross-Domain-Policies:
      - none
      Referrer-Policy:
      - strict-origin-when-cross-origin
      Content-Type:
      - application/json; charset=utf-8
      Vary:
      - Accept, Accept-Encoding, Origin
      Etag:
      - W/"7f062a6ac12c824c99effa6d7b29cda1"
      Cache-Control:
      - max-age=0, private, must-revalidate
      X-Request-Id:
      - 8e56fe16-1ea5-402b-ac45-b09d69d347da
      X-Runtime:
      - '0.023797'
      Transfer-Encoding:
      - chunked
    body:
      encoding: ASCII-8BIT
      string: '{"data":[{"id":"6275e0bbb54c3300983bc33b","type":"tokens","attributes":{"name":"FEVR","address":null,"price_in_dollars":0.005,"update_token_price_in_sc":false,"image_url":null}},{"id":"6275ddd1b54c3300983969b7","type":"tokens","attributes":{"name":"FEVR","address":null,"price_in_dollars":0.005,"update_token_price_in_sc":false,"image_url":null}},{"id":"6275d8230a63220350f9f9ad","type":"tokens","attributes":{"name":"FEVR","address":null,"price_in_dollars":0.005,"update_token_price_in_sc":false,"image_url":null}},{"id":"6275d52d0a632201f916d6ab","type":"tokens","attributes":{"name":"FEVR","address":null,"price_in_dollars":0.005,"update_token_price_in_sc":false,"image_url":null}},{"id":"6275d3a70a6322013c9dc11f","type":"tokens","attributes":{"name":"FEVR","address":null,"price_in_dollars":0.005,"update_token_price_in_sc":false,"image_url":null}},{"id":"60f5d0210751f201483f3947","type":"tokens","attributes":{"name":"BNB","address":null,"price_in_dollars":282.05,"update_token_price_in_sc":false,"image_url":null}},{"id":"60ef7d1411784f02dae91295","type":"tokens","attributes":{"name":"FEVR","address":null,"price_in_dollars":0.0006,"update_token_price_in_sc":false,"image_url":null}},{"id":"60ef659357566a009678e813","type":"tokens","attributes":{"name":"FEVR","address":null,"price_in_dollars":0.0006,"update_token_price_in_sc":false,"image_url":null}},{"id":"60ef0e2122464b08800cde89","type":"tokens","attributes":{"name":"FEVR","address":null,"price_in_dollars":0.0007,"update_token_price_in_sc":false,"image_url":null}}],"meta":{"current_page":1,"next_page":1,"prev_page":1,"total_pages":1,"total_count":9}}'
  recorded_at: Thu, 02 Nov 2023 17:16:46 GMT
- request:
    method: get
    uri: http://localhost:3001/tokens/
    body:
      encoding: US-ASCII
      string: ''
    headers:
      X-Realfevr-I-Token:
      - nfts-dummy-key
      X-Realfevr-Token:
      - nfts_123
      Accept-Encoding:
      - gzip;q=1.0,deflate;q=0.6,identity;q=0.3
      Accept:
      - "*/*"
      User-Agent:
      - Ruby
  response:
    status:
      code: 200
      message: OK
    headers:
      X-Frame-Options:
      - SAMEORIGIN
      X-Xss-Protection:
      - 1; mode=block
      X-Content-Type-Options:
      - nosniff
      X-Download-Options:
      - noopen
      X-Permitted-Cross-Domain-Policies:
      - none
      Referrer-Policy:
      - strict-origin-when-cross-origin
      Content-Type:
      - application/json; charset=utf-8
      Vary:
      - Accept, Accept-Encoding, Origin
      Etag:
      - W/"7f062a6ac12c824c99effa6d7b29cda1"
      Cache-Control:
      - max-age=0, private, must-revalidate
      X-Request-Id:
      - deea4093-9059-4582-86c8-db1bd2ecf196
      X-Runtime:
      - '0.011390'
      Transfer-Encoding:
      - chunked
    body:
      encoding: ASCII-8BIT
      string: '{"data":[{"id":"6275e0bbb54c3300983bc33b","type":"tokens","attributes":{"name":"FEVR","address":null,"price_in_dollars":0.005,"update_token_price_in_sc":false,"image_url":null}},{"id":"6275ddd1b54c3300983969b7","type":"tokens","attributes":{"name":"FEVR","address":null,"price_in_dollars":0.005,"update_token_price_in_sc":false,"image_url":null}},{"id":"6275d8230a63220350f9f9ad","type":"tokens","attributes":{"name":"FEVR","address":null,"price_in_dollars":0.005,"update_token_price_in_sc":false,"image_url":null}},{"id":"6275d52d0a632201f916d6ab","type":"tokens","attributes":{"name":"FEVR","address":null,"price_in_dollars":0.005,"update_token_price_in_sc":false,"image_url":null}},{"id":"6275d3a70a6322013c9dc11f","type":"tokens","attributes":{"name":"FEVR","address":null,"price_in_dollars":0.005,"update_token_price_in_sc":false,"image_url":null}},{"id":"60f5d0210751f201483f3947","type":"tokens","attributes":{"name":"BNB","address":null,"price_in_dollars":282.05,"update_token_price_in_sc":false,"image_url":null}},{"id":"60ef7d1411784f02dae91295","type":"tokens","attributes":{"name":"FEVR","address":null,"price_in_dollars":0.0006,"update_token_price_in_sc":false,"image_url":null}},{"id":"60ef659357566a009678e813","type":"tokens","attributes":{"name":"FEVR","address":null,"price_in_dollars":0.0006,"update_token_price_in_sc":false,"image_url":null}},{"id":"60ef0e2122464b08800cde89","type":"tokens","attributes":{"name":"FEVR","address":null,"price_in_dollars":0.0007,"update_token_price_in_sc":false,"image_url":null}}],"meta":{"current_page":1,"next_page":1,"prev_page":1,"total_pages":1,"total_count":9}}'
  recorded_at: Thu, 02 Nov 2023 17:16:46 GMT
- request:
    method: get
    uri: http://localhost:3001/tokens/
    body:
      encoding: US-ASCII
      string: ''
    headers:
      X-Realfevr-I-Token:
      - nfts-dummy-key
      X-Realfevr-Token:
      - nfts_123
      Accept-Encoding:
      - gzip;q=1.0,deflate;q=0.6,identity;q=0.3
      Accept:
      - "*/*"
      User-Agent:
      - Ruby
  response:
    status:
      code: 200
      message: OK
    headers:
      X-Frame-Options:
      - SAMEORIGIN
      X-Xss-Protection:
      - 1; mode=block
      X-Content-Type-Options:
      - nosniff
      X-Download-Options:
      - noopen
      X-Permitted-Cross-Domain-Policies:
      - none
      Referrer-Policy:
      - strict-origin-when-cross-origin
      Content-Type:
      - application/json; charset=utf-8
      Vary:
      - Accept, Accept-Encoding, Origin
      Etag:
      - W/"7f062a6ac12c824c99effa6d7b29cda1"
      Cache-Control:
      - max-age=0, private, must-revalidate
      X-Request-Id:
      - 9c8164a3-203b-4e84-8b6e-42296f78bdb8
      X-Runtime:
      - '0.011644'
      Transfer-Encoding:
      - chunked
    body:
      encoding: ASCII-8BIT
      string: '{"data":[{"id":"6275e0bbb54c3300983bc33b","type":"tokens","attributes":{"name":"FEVR","address":null,"price_in_dollars":0.005,"update_token_price_in_sc":false,"image_url":null}},{"id":"6275ddd1b54c3300983969b7","type":"tokens","attributes":{"name":"FEVR","address":null,"price_in_dollars":0.005,"update_token_price_in_sc":false,"image_url":null}},{"id":"6275d8230a63220350f9f9ad","type":"tokens","attributes":{"name":"FEVR","address":null,"price_in_dollars":0.005,"update_token_price_in_sc":false,"image_url":null}},{"id":"6275d52d0a632201f916d6ab","type":"tokens","attributes":{"name":"FEVR","address":null,"price_in_dollars":0.005,"update_token_price_in_sc":false,"image_url":null}},{"id":"6275d3a70a6322013c9dc11f","type":"tokens","attributes":{"name":"FEVR","address":null,"price_in_dollars":0.005,"update_token_price_in_sc":false,"image_url":null}},{"id":"60f5d0210751f201483f3947","type":"tokens","attributes":{"name":"BNB","address":null,"price_in_dollars":282.05,"update_token_price_in_sc":false,"image_url":null}},{"id":"60ef7d1411784f02dae91295","type":"tokens","attributes":{"name":"FEVR","address":null,"price_in_dollars":0.0006,"update_token_price_in_sc":false,"image_url":null}},{"id":"60ef659357566a009678e813","type":"tokens","attributes":{"name":"FEVR","address":null,"price_in_dollars":0.0006,"update_token_price_in_sc":false,"image_url":null}},{"id":"60ef0e2122464b08800cde89","type":"tokens","attributes":{"name":"FEVR","address":null,"price_in_dollars":0.0007,"update_token_price_in_sc":false,"image_url":null}}],"meta":{"current_page":1,"next_page":1,"prev_page":1,"total_pages":1,"total_count":9}}'
  recorded_at: Thu, 02 Nov 2023 17:16:46 GMT
- request:
    method: get
    uri: http://localhost:3001/tokens/
    body:
      encoding: US-ASCII
      string: ''
    headers:
      X-Realfevr-I-Token:
      - nfts-dummy-key
      X-Realfevr-Token:
      - nfts_123
      Accept-Encoding:
      - gzip;q=1.0,deflate;q=0.6,identity;q=0.3
      Accept:
      - "*/*"
      User-Agent:
      - Ruby
  response:
    status:
      code: 200
      message: OK
    headers:
      X-Frame-Options:
      - SAMEORIGIN
      X-Xss-Protection:
      - 1; mode=block
      X-Content-Type-Options:
      - nosniff
      X-Download-Options:
      - noopen
      X-Permitted-Cross-Domain-Policies:
      - none
      Referrer-Policy:
      - strict-origin-when-cross-origin
      Content-Type:
      - application/json; charset=utf-8
      Vary:
      - Accept, Accept-Encoding, Origin
      Etag:
      - W/"7f062a6ac12c824c99effa6d7b29cda1"
      Cache-Control:
      - max-age=0, private, must-revalidate
      X-Request-Id:
      - e5c1f6b3-59d8-4273-9952-d0a7b9903d37
      X-Runtime:
      - '0.013739'
      Transfer-Encoding:
      - chunked
    body:
      encoding: ASCII-8BIT
      string: '{"data":[{"id":"6275e0bbb54c3300983bc33b","type":"tokens","attributes":{"name":"FEVR","address":null,"price_in_dollars":0.005,"update_token_price_in_sc":false,"image_url":null}},{"id":"6275ddd1b54c3300983969b7","type":"tokens","attributes":{"name":"FEVR","address":null,"price_in_dollars":0.005,"update_token_price_in_sc":false,"image_url":null}},{"id":"6275d8230a63220350f9f9ad","type":"tokens","attributes":{"name":"FEVR","address":null,"price_in_dollars":0.005,"update_token_price_in_sc":false,"image_url":null}},{"id":"6275d52d0a632201f916d6ab","type":"tokens","attributes":{"name":"FEVR","address":null,"price_in_dollars":0.005,"update_token_price_in_sc":false,"image_url":null}},{"id":"6275d3a70a6322013c9dc11f","type":"tokens","attributes":{"name":"FEVR","address":null,"price_in_dollars":0.005,"update_token_price_in_sc":false,"image_url":null}},{"id":"60f5d0210751f201483f3947","type":"tokens","attributes":{"name":"BNB","address":null,"price_in_dollars":282.05,"update_token_price_in_sc":false,"image_url":null}},{"id":"60ef7d1411784f02dae91295","type":"tokens","attributes":{"name":"FEVR","address":null,"price_in_dollars":0.0006,"update_token_price_in_sc":false,"image_url":null}},{"id":"60ef659357566a009678e813","type":"tokens","attributes":{"name":"FEVR","address":null,"price_in_dollars":0.0006,"update_token_price_in_sc":false,"image_url":null}},{"id":"60ef0e2122464b08800cde89","type":"tokens","attributes":{"name":"FEVR","address":null,"price_in_dollars":0.0007,"update_token_price_in_sc":false,"image_url":null}}],"meta":{"current_page":1,"next_page":1,"prev_page":1,"total_pages":1,"total_count":9}}'
  recorded_at: Thu, 02 Nov 2023 17:16:46 GMT
- request:
    method: get
    uri: http://localhost:3001/tokens/
    body:
      encoding: US-ASCII
      string: ''
    headers:
      X-Realfevr-I-Token:
      - nfts-dummy-key
      X-Realfevr-Token:
      - nfts_123
      Accept-Encoding:
      - gzip;q=1.0,deflate;q=0.6,identity;q=0.3
      Accept:
      - "*/*"
      User-Agent:
      - Ruby
  response:
    status:
      code: 200
      message: OK
    headers:
      X-Frame-Options:
      - SAMEORIGIN
      X-Xss-Protection:
      - 1; mode=block
      X-Content-Type-Options:
      - nosniff
      X-Download-Options:
      - noopen
      X-Permitted-Cross-Domain-Policies:
      - none
      Referrer-Policy:
      - strict-origin-when-cross-origin
      Content-Type:
      - application/json; charset=utf-8
      Vary:
      - Accept, Accept-Encoding, Origin
      Etag:
      - W/"7f062a6ac12c824c99effa6d7b29cda1"
      Cache-Control:
      - max-age=0, private, must-revalidate
      X-Request-Id:
      - e9b8f3f3-77a6-42bc-b5e0-73bbe46c0b27
      X-Runtime:
      - '0.030957'
      Transfer-Encoding:
      - chunked
    body:
      encoding: ASCII-8BIT
      string: '{"data":[{"id":"6275e0bbb54c3300983bc33b","type":"tokens","attributes":{"name":"FEVR","address":null,"price_in_dollars":0.005,"update_token_price_in_sc":false,"image_url":null}},{"id":"6275ddd1b54c3300983969b7","type":"tokens","attributes":{"name":"FEVR","address":null,"price_in_dollars":0.005,"update_token_price_in_sc":false,"image_url":null}},{"id":"6275d8230a63220350f9f9ad","type":"tokens","attributes":{"name":"FEVR","address":null,"price_in_dollars":0.005,"update_token_price_in_sc":false,"image_url":null}},{"id":"6275d52d0a632201f916d6ab","type":"tokens","attributes":{"name":"FEVR","address":null,"price_in_dollars":0.005,"update_token_price_in_sc":false,"image_url":null}},{"id":"6275d3a70a6322013c9dc11f","type":"tokens","attributes":{"name":"FEVR","address":null,"price_in_dollars":0.005,"update_token_price_in_sc":false,"image_url":null}},{"id":"60f5d0210751f201483f3947","type":"tokens","attributes":{"name":"BNB","address":null,"price_in_dollars":282.05,"update_token_price_in_sc":false,"image_url":null}},{"id":"60ef7d1411784f02dae91295","type":"tokens","attributes":{"name":"FEVR","address":null,"price_in_dollars":0.0006,"update_token_price_in_sc":false,"image_url":null}},{"id":"60ef659357566a009678e813","type":"tokens","attributes":{"name":"FEVR","address":null,"price_in_dollars":0.0006,"update_token_price_in_sc":false,"image_url":null}},{"id":"60ef0e2122464b08800cde89","type":"tokens","attributes":{"name":"FEVR","address":null,"price_in_dollars":0.0007,"update_token_price_in_sc":false,"image_url":null}}],"meta":{"current_page":1,"next_page":1,"prev_page":1,"total_pages":1,"total_count":9}}'
  recorded_at: Thu, 02 Nov 2023 17:16:46 GMT
- request:
    method: get
    uri: http://localhost:3001/tokens/
    body:
      encoding: US-ASCII
      string: ''
    headers:
      X-Realfevr-I-Token:
      - nfts-dummy-key
      X-Realfevr-Token:
      - nfts_123
      Accept-Encoding:
      - gzip;q=1.0,deflate;q=0.6,identity;q=0.3
      Accept:
      - "*/*"
      User-Agent:
      - Ruby
  response:
    status:
      code: 200
      message: OK
    headers:
      X-Frame-Options:
      - SAMEORIGIN
      X-Xss-Protection:
      - 1; mode=block
      X-Content-Type-Options:
      - nosniff
      X-Download-Options:
      - noopen
      X-Permitted-Cross-Domain-Policies:
      - none
      Referrer-Policy:
      - strict-origin-when-cross-origin
      Content-Type:
      - application/json; charset=utf-8
      Vary:
      - Accept, Accept-Encoding, Origin
      Etag:
      - W/"7f062a6ac12c824c99effa6d7b29cda1"
      Cache-Control:
      - max-age=0, private, must-revalidate
      X-Request-Id:
      - d2cf8ad9-4fbd-4735-9274-397460606c26
      X-Runtime:
      - '0.026855'
      Transfer-Encoding:
      - chunked
    body:
      encoding: ASCII-8BIT
      string: '{"data":[{"id":"6275e0bbb54c3300983bc33b","type":"tokens","attributes":{"name":"FEVR","address":null,"price_in_dollars":0.005,"update_token_price_in_sc":false,"image_url":null}},{"id":"6275ddd1b54c3300983969b7","type":"tokens","attributes":{"name":"FEVR","address":null,"price_in_dollars":0.005,"update_token_price_in_sc":false,"image_url":null}},{"id":"6275d8230a63220350f9f9ad","type":"tokens","attributes":{"name":"FEVR","address":null,"price_in_dollars":0.005,"update_token_price_in_sc":false,"image_url":null}},{"id":"6275d52d0a632201f916d6ab","type":"tokens","attributes":{"name":"FEVR","address":null,"price_in_dollars":0.005,"update_token_price_in_sc":false,"image_url":null}},{"id":"6275d3a70a6322013c9dc11f","type":"tokens","attributes":{"name":"FEVR","address":null,"price_in_dollars":0.005,"update_token_price_in_sc":false,"image_url":null}},{"id":"60f5d0210751f201483f3947","type":"tokens","attributes":{"name":"BNB","address":null,"price_in_dollars":282.05,"update_token_price_in_sc":false,"image_url":null}},{"id":"60ef7d1411784f02dae91295","type":"tokens","attributes":{"name":"FEVR","address":null,"price_in_dollars":0.0006,"update_token_price_in_sc":false,"image_url":null}},{"id":"60ef659357566a009678e813","type":"tokens","attributes":{"name":"FEVR","address":null,"price_in_dollars":0.0006,"update_token_price_in_sc":false,"image_url":null}},{"id":"60ef0e2122464b08800cde89","type":"tokens","attributes":{"name":"FEVR","address":null,"price_in_dollars":0.0007,"update_token_price_in_sc":false,"image_url":null}}],"meta":{"current_page":1,"next_page":1,"prev_page":1,"total_pages":1,"total_count":9}}'
  recorded_at: Thu, 02 Nov 2023 17:16:46 GMT
recorded_with: VCR 6.0.0
