---
http_interactions:
- request:
    method: get
    uri: http://localhost:3001/tokens/
    body:
      encoding: US-ASCII
      string: ''
    headers:
      X-Realfevr-I-Token:
      - nfts-dummy-key
      X-Realfevr-Token:
      - nfts_123
      Accept-Encoding:
      - gzip;q=1.0,deflate;q=0.6,identity;q=0.3
      Accept:
      - "*/*"
      User-Agent:
      - Ruby
  response:
    status:
      code: 200
      message: OK
    headers:
      X-Frame-Options:
      - SAMEORIGIN
      X-Xss-Protection:
      - 1; mode=block
      X-Content-Type-Options:
      - nosniff
      X-Download-Options:
      - noopen
      X-Permitted-Cross-Domain-Policies:
      - none
      Referrer-Policy:
      - strict-origin-when-cross-origin
      Content-Type:
      - application/json; charset=utf-8
      Vary:
      - Accept, Accept-Encoding, Origin
      Etag:
      - W/"6abcd7e109dcb331a82c935951f936f2"
      Cache-Control:
      - max-age=0, private, must-revalidate
      X-Request-Id:
      - 76d1fd24-4fa9-4021-8b3d-84e0456cd440
      X-Runtime:
      - '0.013892'
      Transfer-Encoding:
      - chunked
    body:
      encoding: ASCII-8BIT
      string: '{"data":[{"id":"6275e0bbb54c3300983bc33b","type":"tokens","attributes":{"name":"FEVR","address":null,"price_in_dollars":0.005,"update_token_price_in_sc":false,"image_url":null}},{"id":"6275ddd1b54c3300983969b7","type":"tokens","attributes":{"name":"FEVR","address":null,"price_in_dollars":0.005,"update_token_price_in_sc":false,"image_url":null}},{"id":"6275d8230a63220350f9f9ad","type":"tokens","attributes":{"name":"FEVR","address":null,"price_in_dollars":0.005,"update_token_price_in_sc":false,"image_url":null}},{"id":"6275d52d0a632201f916d6ab","type":"tokens","attributes":{"name":"FEVR","address":null,"price_in_dollars":0.005,"update_token_price_in_sc":false,"image_url":null}},{"id":"6275d3a70a6322013c9dc11f","type":"tokens","attributes":{"name":"FEVR","address":null,"price_in_dollars":0.005,"update_token_price_in_sc":false,"image_url":null}},{"id":"60f5d0210751f201483f3947","type":"tokens","attributes":{"name":"BNB","address":null,"price_in_dollars":282.05,"update_token_price_in_sc":false,"image_url":null}},{"id":"60ef7d1411784f02dae91295","type":"tokens","attributes":{"name":"FEVR","address":null,"price_in_dollars":0.0006,"update_token_price_in_sc":false,"image_url":null}},{"id":"60ef659357566a009678e813","type":"tokens","attributes":{"name":"FEVR","address":null,"price_in_dollars":0.0006,"update_token_price_in_sc":false,"image_url":null}},{"id":"60ef0e2122464b08800cde89","type":"tokens","attributes":{"name":"FEVR","address":null,"price_in_dollars":0.0007,"update_token_price_in_sc":false,"image_url":null}}],"meta":{"current_page":1,"next_page":1,"prev_page":1,"total_pages":1,"total_count":9}}'
  recorded_at: Thu, 02 Nov 2023 17:16:47 GMT
- request:
    method: get
    uri: http://localhost:3001/tokens/
    body:
      encoding: US-ASCII
      string: ''
    headers:
      X-Realfevr-I-Token:
      - nfts-dummy-key
      X-Realfevr-Token:
      - nfts_123
      Accept-Encoding:
      - gzip;q=1.0,deflate;q=0.6,identity;q=0.3
      Accept:
      - "*/*"
      User-Agent:
      - Ruby
  response:
    status:
      code: 200
      message: OK
    headers:
      X-Frame-Options:
      - SAMEORIGIN
      X-Xss-Protection:
      - 1; mode=block
      X-Content-Type-Options:
      - nosniff
      X-Download-Options:
      - noopen
      X-Permitted-Cross-Domain-Policies:
      - none
      Referrer-Policy:
      - strict-origin-when-cross-origin
      Content-Type:
      - application/json; charset=utf-8
      Vary:
      - Accept, Accept-Encoding, Origin
      Etag:
      - W/"6abcd7e109dcb331a82c935951f936f2"
      Cache-Control:
      - max-age=0, private, must-revalidate
      X-Request-Id:
      - 4970722a-4fc9-4ed1-aa01-84aec3d1fbe5
      X-Runtime:
      - '0.016094'
      Transfer-Encoding:
      - chunked
    body:
      encoding: ASCII-8BIT
      string: '{"data":[{"id":"6275e0bbb54c3300983bc33b","type":"tokens","attributes":{"name":"FEVR","address":null,"price_in_dollars":0.005,"update_token_price_in_sc":false,"image_url":null}},{"id":"6275ddd1b54c3300983969b7","type":"tokens","attributes":{"name":"FEVR","address":null,"price_in_dollars":0.005,"update_token_price_in_sc":false,"image_url":null}},{"id":"6275d8230a63220350f9f9ad","type":"tokens","attributes":{"name":"FEVR","address":null,"price_in_dollars":0.005,"update_token_price_in_sc":false,"image_url":null}},{"id":"6275d52d0a632201f916d6ab","type":"tokens","attributes":{"name":"FEVR","address":null,"price_in_dollars":0.005,"update_token_price_in_sc":false,"image_url":null}},{"id":"6275d3a70a6322013c9dc11f","type":"tokens","attributes":{"name":"FEVR","address":null,"price_in_dollars":0.005,"update_token_price_in_sc":false,"image_url":null}},{"id":"60f5d0210751f201483f3947","type":"tokens","attributes":{"name":"BNB","address":null,"price_in_dollars":282.05,"update_token_price_in_sc":false,"image_url":null}},{"id":"60ef7d1411784f02dae91295","type":"tokens","attributes":{"name":"FEVR","address":null,"price_in_dollars":0.0006,"update_token_price_in_sc":false,"image_url":null}},{"id":"60ef659357566a009678e813","type":"tokens","attributes":{"name":"FEVR","address":null,"price_in_dollars":0.0006,"update_token_price_in_sc":false,"image_url":null}},{"id":"60ef0e2122464b08800cde89","type":"tokens","attributes":{"name":"FEVR","address":null,"price_in_dollars":0.0007,"update_token_price_in_sc":false,"image_url":null}}],"meta":{"current_page":1,"next_page":1,"prev_page":1,"total_pages":1,"total_count":9}}'
  recorded_at: Thu, 02 Nov 2023 17:16:47 GMT
- request:
    method: get
    uri: http://localhost:3001/tokens/
    body:
      encoding: US-ASCII
      string: ''
    headers:
      X-Realfevr-I-Token:
      - nfts-dummy-key
      X-Realfevr-Token:
      - nfts_123
      Accept-Encoding:
      - gzip;q=1.0,deflate;q=0.6,identity;q=0.3
      Accept:
      - "*/*"
      User-Agent:
      - Ruby
  response:
    status:
      code: 200
      message: OK
    headers:
      X-Frame-Options:
      - SAMEORIGIN
      X-Xss-Protection:
      - 1; mode=block
      X-Content-Type-Options:
      - nosniff
      X-Download-Options:
      - noopen
      X-Permitted-Cross-Domain-Policies:
      - none
      Referrer-Policy:
      - strict-origin-when-cross-origin
      Content-Type:
      - application/json; charset=utf-8
      Vary:
      - Accept, Accept-Encoding, Origin
      Etag:
      - W/"6abcd7e109dcb331a82c935951f936f2"
      Cache-Control:
      - max-age=0, private, must-revalidate
      X-Request-Id:
      - b9c9cae0-eec5-4a19-ba45-0a76afcc9c83
      X-Runtime:
      - '0.018166'
      Transfer-Encoding:
      - chunked
    body:
      encoding: ASCII-8BIT
      string: '{"data":[{"id":"6275e0bbb54c3300983bc33b","type":"tokens","attributes":{"name":"FEVR","address":null,"price_in_dollars":0.005,"update_token_price_in_sc":false,"image_url":null}},{"id":"6275ddd1b54c3300983969b7","type":"tokens","attributes":{"name":"FEVR","address":null,"price_in_dollars":0.005,"update_token_price_in_sc":false,"image_url":null}},{"id":"6275d8230a63220350f9f9ad","type":"tokens","attributes":{"name":"FEVR","address":null,"price_in_dollars":0.005,"update_token_price_in_sc":false,"image_url":null}},{"id":"6275d52d0a632201f916d6ab","type":"tokens","attributes":{"name":"FEVR","address":null,"price_in_dollars":0.005,"update_token_price_in_sc":false,"image_url":null}},{"id":"6275d3a70a6322013c9dc11f","type":"tokens","attributes":{"name":"FEVR","address":null,"price_in_dollars":0.005,"update_token_price_in_sc":false,"image_url":null}},{"id":"60f5d0210751f201483f3947","type":"tokens","attributes":{"name":"BNB","address":null,"price_in_dollars":282.05,"update_token_price_in_sc":false,"image_url":null}},{"id":"60ef7d1411784f02dae91295","type":"tokens","attributes":{"name":"FEVR","address":null,"price_in_dollars":0.0006,"update_token_price_in_sc":false,"image_url":null}},{"id":"60ef659357566a009678e813","type":"tokens","attributes":{"name":"FEVR","address":null,"price_in_dollars":0.0006,"update_token_price_in_sc":false,"image_url":null}},{"id":"60ef0e2122464b08800cde89","type":"tokens","attributes":{"name":"FEVR","address":null,"price_in_dollars":0.0007,"update_token_price_in_sc":false,"image_url":null}}],"meta":{"current_page":1,"next_page":1,"prev_page":1,"total_pages":1,"total_count":9}}'
  recorded_at: Thu, 02 Nov 2023 17:16:47 GMT
- request:
    method: get
    uri: http://localhost:3001/tokens/
    body:
      encoding: US-ASCII
      string: ''
    headers:
      X-Realfevr-I-Token:
      - nfts-dummy-key
      X-Realfevr-Token:
      - nfts_123
      Accept-Encoding:
      - gzip;q=1.0,deflate;q=0.6,identity;q=0.3
      Accept:
      - "*/*"
      User-Agent:
      - Ruby
  response:
    status:
      code: 200
      message: OK
    headers:
      X-Frame-Options:
      - SAMEORIGIN
      X-Xss-Protection:
      - 1; mode=block
      X-Content-Type-Options:
      - nosniff
      X-Download-Options:
      - noopen
      X-Permitted-Cross-Domain-Policies:
      - none
      Referrer-Policy:
      - strict-origin-when-cross-origin
      Content-Type:
      - application/json; charset=utf-8
      Vary:
      - Accept, Accept-Encoding, Origin
      Etag:
      - W/"6abcd7e109dcb331a82c935951f936f2"
      Cache-Control:
      - max-age=0, private, must-revalidate
      X-Request-Id:
      - f39ba8ec-2186-484a-881d-3d8b723b20c1
      X-Runtime:
      - '0.011732'
      Transfer-Encoding:
      - chunked
    body:
      encoding: ASCII-8BIT
      string: '{"data":[{"id":"6275e0bbb54c3300983bc33b","type":"tokens","attributes":{"name":"FEVR","address":null,"price_in_dollars":0.005,"update_token_price_in_sc":false,"image_url":null}},{"id":"6275ddd1b54c3300983969b7","type":"tokens","attributes":{"name":"FEVR","address":null,"price_in_dollars":0.005,"update_token_price_in_sc":false,"image_url":null}},{"id":"6275d8230a63220350f9f9ad","type":"tokens","attributes":{"name":"FEVR","address":null,"price_in_dollars":0.005,"update_token_price_in_sc":false,"image_url":null}},{"id":"6275d52d0a632201f916d6ab","type":"tokens","attributes":{"name":"FEVR","address":null,"price_in_dollars":0.005,"update_token_price_in_sc":false,"image_url":null}},{"id":"6275d3a70a6322013c9dc11f","type":"tokens","attributes":{"name":"FEVR","address":null,"price_in_dollars":0.005,"update_token_price_in_sc":false,"image_url":null}},{"id":"60f5d0210751f201483f3947","type":"tokens","attributes":{"name":"BNB","address":null,"price_in_dollars":282.05,"update_token_price_in_sc":false,"image_url":null}},{"id":"60ef7d1411784f02dae91295","type":"tokens","attributes":{"name":"FEVR","address":null,"price_in_dollars":0.0006,"update_token_price_in_sc":false,"image_url":null}},{"id":"60ef659357566a009678e813","type":"tokens","attributes":{"name":"FEVR","address":null,"price_in_dollars":0.0006,"update_token_price_in_sc":false,"image_url":null}},{"id":"60ef0e2122464b08800cde89","type":"tokens","attributes":{"name":"FEVR","address":null,"price_in_dollars":0.0007,"update_token_price_in_sc":false,"image_url":null}}],"meta":{"current_page":1,"next_page":1,"prev_page":1,"total_pages":1,"total_count":9}}'
  recorded_at: Thu, 02 Nov 2023 17:16:47 GMT
- request:
    method: get
    uri: http://localhost:3001/tokens/
    body:
      encoding: US-ASCII
      string: ''
    headers:
      X-Realfevr-I-Token:
      - nfts-dummy-key
      X-Realfevr-Token:
      - nfts_123
      Accept-Encoding:
      - gzip;q=1.0,deflate;q=0.6,identity;q=0.3
      Accept:
      - "*/*"
      User-Agent:
      - Ruby
  response:
    status:
      code: 200
      message: OK
    headers:
      X-Frame-Options:
      - SAMEORIGIN
      X-Xss-Protection:
      - 1; mode=block
      X-Content-Type-Options:
      - nosniff
      X-Download-Options:
      - noopen
      X-Permitted-Cross-Domain-Policies:
      - none
      Referrer-Policy:
      - strict-origin-when-cross-origin
      Content-Type:
      - application/json; charset=utf-8
      Vary:
      - Accept, Accept-Encoding, Origin
      Etag:
      - W/"6abcd7e109dcb331a82c935951f936f2"
      Cache-Control:
      - max-age=0, private, must-revalidate
      X-Request-Id:
      - f46472b4-ab13-4060-90e1-65755eb808bb
      X-Runtime:
      - '0.016024'
      Transfer-Encoding:
      - chunked
    body:
      encoding: ASCII-8BIT
      string: '{"data":[{"id":"6275e0bbb54c3300983bc33b","type":"tokens","attributes":{"name":"FEVR","address":null,"price_in_dollars":0.005,"update_token_price_in_sc":false,"image_url":null}},{"id":"6275ddd1b54c3300983969b7","type":"tokens","attributes":{"name":"FEVR","address":null,"price_in_dollars":0.005,"update_token_price_in_sc":false,"image_url":null}},{"id":"6275d8230a63220350f9f9ad","type":"tokens","attributes":{"name":"FEVR","address":null,"price_in_dollars":0.005,"update_token_price_in_sc":false,"image_url":null}},{"id":"6275d52d0a632201f916d6ab","type":"tokens","attributes":{"name":"FEVR","address":null,"price_in_dollars":0.005,"update_token_price_in_sc":false,"image_url":null}},{"id":"6275d3a70a6322013c9dc11f","type":"tokens","attributes":{"name":"FEVR","address":null,"price_in_dollars":0.005,"update_token_price_in_sc":false,"image_url":null}},{"id":"60f5d0210751f201483f3947","type":"tokens","attributes":{"name":"BNB","address":null,"price_in_dollars":282.05,"update_token_price_in_sc":false,"image_url":null}},{"id":"60ef7d1411784f02dae91295","type":"tokens","attributes":{"name":"FEVR","address":null,"price_in_dollars":0.0006,"update_token_price_in_sc":false,"image_url":null}},{"id":"60ef659357566a009678e813","type":"tokens","attributes":{"name":"FEVR","address":null,"price_in_dollars":0.0006,"update_token_price_in_sc":false,"image_url":null}},{"id":"60ef0e2122464b08800cde89","type":"tokens","attributes":{"name":"FEVR","address":null,"price_in_dollars":0.0007,"update_token_price_in_sc":false,"image_url":null}}],"meta":{"current_page":1,"next_page":1,"prev_page":1,"total_pages":1,"total_count":9}}'
  recorded_at: Thu, 02 Nov 2023 17:16:47 GMT
- request:
    method: get
    uri: http://localhost:3001/tokens/
    body:
      encoding: US-ASCII
      string: ''
    headers:
      X-Realfevr-I-Token:
      - nfts-dummy-key
      X-Realfevr-Token:
      - nfts_123
      Accept-Encoding:
      - gzip;q=1.0,deflate;q=0.6,identity;q=0.3
      Accept:
      - "*/*"
      User-Agent:
      - Ruby
  response:
    status:
      code: 200
      message: OK
    headers:
      X-Frame-Options:
      - SAMEORIGIN
      X-Xss-Protection:
      - 1; mode=block
      X-Content-Type-Options:
      - nosniff
      X-Download-Options:
      - noopen
      X-Permitted-Cross-Domain-Policies:
      - none
      Referrer-Policy:
      - strict-origin-when-cross-origin
      Content-Type:
      - application/json; charset=utf-8
      Vary:
      - Accept, Accept-Encoding, Origin
      Etag:
      - W/"6abcd7e109dcb331a82c935951f936f2"
      Cache-Control:
      - max-age=0, private, must-revalidate
      X-Request-Id:
      - a9e7eb17-2b3b-4aa5-a1fc-9e8aa6f7743b
      X-Runtime:
      - '0.010810'
      Transfer-Encoding:
      - chunked
    body:
      encoding: ASCII-8BIT
      string: '{"data":[{"id":"6275e0bbb54c3300983bc33b","type":"tokens","attributes":{"name":"FEVR","address":null,"price_in_dollars":0.005,"update_token_price_in_sc":false,"image_url":null}},{"id":"6275ddd1b54c3300983969b7","type":"tokens","attributes":{"name":"FEVR","address":null,"price_in_dollars":0.005,"update_token_price_in_sc":false,"image_url":null}},{"id":"6275d8230a63220350f9f9ad","type":"tokens","attributes":{"name":"FEVR","address":null,"price_in_dollars":0.005,"update_token_price_in_sc":false,"image_url":null}},{"id":"6275d52d0a632201f916d6ab","type":"tokens","attributes":{"name":"FEVR","address":null,"price_in_dollars":0.005,"update_token_price_in_sc":false,"image_url":null}},{"id":"6275d3a70a6322013c9dc11f","type":"tokens","attributes":{"name":"FEVR","address":null,"price_in_dollars":0.005,"update_token_price_in_sc":false,"image_url":null}},{"id":"60f5d0210751f201483f3947","type":"tokens","attributes":{"name":"BNB","address":null,"price_in_dollars":282.05,"update_token_price_in_sc":false,"image_url":null}},{"id":"60ef7d1411784f02dae91295","type":"tokens","attributes":{"name":"FEVR","address":null,"price_in_dollars":0.0006,"update_token_price_in_sc":false,"image_url":null}},{"id":"60ef659357566a009678e813","type":"tokens","attributes":{"name":"FEVR","address":null,"price_in_dollars":0.0006,"update_token_price_in_sc":false,"image_url":null}},{"id":"60ef0e2122464b08800cde89","type":"tokens","attributes":{"name":"FEVR","address":null,"price_in_dollars":0.0007,"update_token_price_in_sc":false,"image_url":null}}],"meta":{"current_page":1,"next_page":1,"prev_page":1,"total_pages":1,"total_count":9}}'
  recorded_at: Thu, 02 Nov 2023 17:16:47 GMT
- request:
    method: get
    uri: http://localhost:3001/tokens/
    body:
      encoding: US-ASCII
      string: ''
    headers:
      X-Realfevr-I-Token:
      - nfts-dummy-key
      X-Realfevr-Token:
      - nfts_123
      Accept-Encoding:
      - gzip;q=1.0,deflate;q=0.6,identity;q=0.3
      Accept:
      - "*/*"
      User-Agent:
      - Ruby
  response:
    status:
      code: 200
      message: OK
    headers:
      X-Frame-Options:
      - SAMEORIGIN
      X-Xss-Protection:
      - 1; mode=block
      X-Content-Type-Options:
      - nosniff
      X-Download-Options:
      - noopen
      X-Permitted-Cross-Domain-Policies:
      - none
      Referrer-Policy:
      - strict-origin-when-cross-origin
      Content-Type:
      - application/json; charset=utf-8
      Vary:
      - Accept, Accept-Encoding, Origin
      Etag:
      - W/"6abcd7e109dcb331a82c935951f936f2"
      Cache-Control:
      - max-age=0, private, must-revalidate
      X-Request-Id:
      - 4aa7922d-1b06-4bd0-af9c-911db3b63f33
      X-Runtime:
      - '0.011310'
      Transfer-Encoding:
      - chunked
    body:
      encoding: ASCII-8BIT
      string: '{"data":[{"id":"6275e0bbb54c3300983bc33b","type":"tokens","attributes":{"name":"FEVR","address":null,"price_in_dollars":0.005,"update_token_price_in_sc":false,"image_url":null}},{"id":"6275ddd1b54c3300983969b7","type":"tokens","attributes":{"name":"FEVR","address":null,"price_in_dollars":0.005,"update_token_price_in_sc":false,"image_url":null}},{"id":"6275d8230a63220350f9f9ad","type":"tokens","attributes":{"name":"FEVR","address":null,"price_in_dollars":0.005,"update_token_price_in_sc":false,"image_url":null}},{"id":"6275d52d0a632201f916d6ab","type":"tokens","attributes":{"name":"FEVR","address":null,"price_in_dollars":0.005,"update_token_price_in_sc":false,"image_url":null}},{"id":"6275d3a70a6322013c9dc11f","type":"tokens","attributes":{"name":"FEVR","address":null,"price_in_dollars":0.005,"update_token_price_in_sc":false,"image_url":null}},{"id":"60f5d0210751f201483f3947","type":"tokens","attributes":{"name":"BNB","address":null,"price_in_dollars":282.05,"update_token_price_in_sc":false,"image_url":null}},{"id":"60ef7d1411784f02dae91295","type":"tokens","attributes":{"name":"FEVR","address":null,"price_in_dollars":0.0006,"update_token_price_in_sc":false,"image_url":null}},{"id":"60ef659357566a009678e813","type":"tokens","attributes":{"name":"FEVR","address":null,"price_in_dollars":0.0006,"update_token_price_in_sc":false,"image_url":null}},{"id":"60ef0e2122464b08800cde89","type":"tokens","attributes":{"name":"FEVR","address":null,"price_in_dollars":0.0007,"update_token_price_in_sc":false,"image_url":null}}],"meta":{"current_page":1,"next_page":1,"prev_page":1,"total_pages":1,"total_count":9}}'
  recorded_at: Thu, 02 Nov 2023 17:16:47 GMT
- request:
    method: get
    uri: http://localhost:3001/tokens/
    body:
      encoding: US-ASCII
      string: ''
    headers:
      X-Realfevr-I-Token:
      - nfts-dummy-key
      X-Realfevr-Token:
      - nfts_123
      Accept-Encoding:
      - gzip;q=1.0,deflate;q=0.6,identity;q=0.3
      Accept:
      - "*/*"
      User-Agent:
      - Ruby
  response:
    status:
      code: 200
      message: OK
    headers:
      X-Frame-Options:
      - SAMEORIGIN
      X-Xss-Protection:
      - 1; mode=block
      X-Content-Type-Options:
      - nosniff
      X-Download-Options:
      - noopen
      X-Permitted-Cross-Domain-Policies:
      - none
      Referrer-Policy:
      - strict-origin-when-cross-origin
      Content-Type:
      - application/json; charset=utf-8
      Vary:
      - Accept, Accept-Encoding, Origin
      Etag:
      - W/"6abcd7e109dcb331a82c935951f936f2"
      Cache-Control:
      - max-age=0, private, must-revalidate
      X-Request-Id:
      - aeaa1703-7e61-45c1-af95-1c7f67da4d03
      X-Runtime:
      - '0.013853'
      Transfer-Encoding:
      - chunked
    body:
      encoding: ASCII-8BIT
      string: '{"data":[{"id":"6275e0bbb54c3300983bc33b","type":"tokens","attributes":{"name":"FEVR","address":null,"price_in_dollars":0.005,"update_token_price_in_sc":false,"image_url":null}},{"id":"6275ddd1b54c3300983969b7","type":"tokens","attributes":{"name":"FEVR","address":null,"price_in_dollars":0.005,"update_token_price_in_sc":false,"image_url":null}},{"id":"6275d8230a63220350f9f9ad","type":"tokens","attributes":{"name":"FEVR","address":null,"price_in_dollars":0.005,"update_token_price_in_sc":false,"image_url":null}},{"id":"6275d52d0a632201f916d6ab","type":"tokens","attributes":{"name":"FEVR","address":null,"price_in_dollars":0.005,"update_token_price_in_sc":false,"image_url":null}},{"id":"6275d3a70a6322013c9dc11f","type":"tokens","attributes":{"name":"FEVR","address":null,"price_in_dollars":0.005,"update_token_price_in_sc":false,"image_url":null}},{"id":"60f5d0210751f201483f3947","type":"tokens","attributes":{"name":"BNB","address":null,"price_in_dollars":282.05,"update_token_price_in_sc":false,"image_url":null}},{"id":"60ef7d1411784f02dae91295","type":"tokens","attributes":{"name":"FEVR","address":null,"price_in_dollars":0.0006,"update_token_price_in_sc":false,"image_url":null}},{"id":"60ef659357566a009678e813","type":"tokens","attributes":{"name":"FEVR","address":null,"price_in_dollars":0.0006,"update_token_price_in_sc":false,"image_url":null}},{"id":"60ef0e2122464b08800cde89","type":"tokens","attributes":{"name":"FEVR","address":null,"price_in_dollars":0.0007,"update_token_price_in_sc":false,"image_url":null}}],"meta":{"current_page":1,"next_page":1,"prev_page":1,"total_pages":1,"total_count":9}}'
  recorded_at: Thu, 02 Nov 2023 17:16:47 GMT
recorded_with: VCR 6.0.0
